﻿{
  "Groups": [
    {
      "ConfigObjects": [
        {
          "StoredValue": "'false'",
          "Properties": {
            "TypeName": "String",
            "VariableName": "RunFireDrill",
            "FriendlyName": "Run Fire Drill?",
            "Description": "Whether to write every event to the event logs upon start up.",
            "EncryptionMethod": 0,
            "Modifiable": true
          }
        },
        {
          "StoredValue": "86400000",
          "Properties": {
            "TypeName": "Integer",
            "VariableName": "ResetInterval",
            "FriendlyName": "Reset Interval",
            "Description": "Time in milliseconds when the statistics for Transaction Tracker will be reset.",
            "EncryptionMethod": 0,
            "Modifiable": true
          }
        },
        {
          "StoredValue": "3600000",
          "Properties": {
            "TypeName": "Integer",
            "VariableName": "SummaryInterval",
            "FriendlyName": "Summary Interval",
            "Description": "Time in milliseconds for when the statistics will be printed out for Transaction Tracker.",
            "EncryptionMethod": 0,
            "Modifiable": true
          }
        }
      ],
      "Properties": {
        "Description": "Any miscellanous variable",
        "FriendlyName": "Misc",
        "Modifiable": false
      }
    }
  ]
}